vhdl clock_generator_v4_03_a "F:\Xilinx\14.7\ISE_DS\EDK\hw\XilinxProcessorIPLib\pcores\clock_generator_v4_03_a\hdl\vhdl\dcm_module.vhd"
vhdl clock_generator_v4_03_a "F:\Xilinx\14.7\ISE_DS\EDK\hw\XilinxProcessorIPLib\pcores\clock_generator_v4_03_a\hdl\vhdl\pll_module.vhd"
vhdl clock_generator_v4_03_a "F:\Xilinx\14.7\ISE_DS\EDK\hw\XilinxProcessorIPLib\pcores\clock_generator_v4_03_a\hdl\vhdl\mmcm_module.vhd"
vhdl clock_generator_v4_03_a "F:\Xilinx\14.7\ISE_DS\EDK\hw\XilinxProcessorIPLib\pcores\clock_generator_v4_03_a\hdl\vhdl\plle2_module.vhd"
vhdl clock_generator_0_v4_03_a "F:\Microblaze_SDRAM\hdl\elaborate\clock_generator_0_v4_03_a\hdl\vhdl\clock_generator.vhd"
vhdl work "F:\Microblaze_SDRAM\hdl\it_works_clock_generator_0_wrapper.vhd"
