vhdl proc_sys_reset_v3_00_a "F:\Xilinx\14.7\ISE_DS\EDK\hw\XilinxProcessorIPLib\pcores\proc_sys_reset_v3_00_a\hdl\vhdl\upcnt_n.vhd"
vhdl proc_sys_reset_v3_00_a "F:\Xilinx\14.7\ISE_DS\EDK\hw\XilinxProcessorIPLib\pcores\proc_sys_reset_v3_00_a\hdl\vhdl\lpf.vhd"
vhdl proc_sys_reset_v3_00_a "F:\Xilinx\14.7\ISE_DS\EDK\hw\XilinxProcessorIPLib\pcores\proc_sys_reset_v3_00_a\hdl\vhdl\sequence.vhd"
vhdl proc_sys_reset_v3_00_a "F:\Xilinx\14.7\ISE_DS\EDK\hw\XilinxProcessorIPLib\pcores\proc_sys_reset_v3_00_a\hdl\vhdl\proc_sys_reset.vhd"
vhdl work "F:\Microblaze_SDRAM\hdl\it_works_proc_sys_reset_0_wrapper.vhd"
