vhdl proc_common_v3_00_a "F:\Xilinx\14.7\ISE_DS\EDK\hw\XilinxProcessorIPLib\pcores\proc_common_v3_00_a\hdl\vhdl\family.vhd"
vhdl proc_common_v3_00_a "F:\Xilinx\14.7\ISE_DS\EDK\hw\XilinxProcessorIPLib\pcores\proc_common_v3_00_a\hdl\vhdl\family_support.vhd"
vhdl proc_common_v3_00_a "F:\Xilinx\14.7\ISE_DS\EDK\hw\XilinxProcessorIPLib\pcores\proc_common_v3_00_a\hdl\vhdl\coregen_comp_defs.vhd"
vhdl proc_common_v3_00_a "F:\Xilinx\14.7\ISE_DS\EDK\hw\XilinxProcessorIPLib\pcores\proc_common_v3_00_a\hdl\vhdl\common_types_pkg.vhd"
vhdl proc_common_v3_00_a "F:\Xilinx\14.7\ISE_DS\EDK\hw\XilinxProcessorIPLib\pcores\proc_common_v3_00_a\hdl\vhdl\proc_common_pkg.vhd"
vhdl proc_common_v3_00_a "F:\Xilinx\14.7\ISE_DS\EDK\hw\XilinxProcessorIPLib\pcores\proc_common_v3_00_a\hdl\vhdl\conv_funs_pkg.vhd"
vhdl proc_common_v3_00_a "F:\Xilinx\14.7\ISE_DS\EDK\hw\XilinxProcessorIPLib\pcores\proc_common_v3_00_a\hdl\vhdl\ipif_pkg.vhd"
vhdl proc_common_v3_00_a "F:\Xilinx\14.7\ISE_DS\EDK\hw\XilinxProcessorIPLib\pcores\proc_common_v3_00_a\hdl\vhdl\async_fifo_fg.vhd"
vhdl proc_common_v3_00_a "F:\Xilinx\14.7\ISE_DS\EDK\hw\XilinxProcessorIPLib\pcores\proc_common_v3_00_a\hdl\vhdl\sync_fifo_fg.vhd"
vhdl proc_common_v3_00_a "F:\Xilinx\14.7\ISE_DS\EDK\hw\XilinxProcessorIPLib\pcores\proc_common_v3_00_a\hdl\vhdl\addsub.vhd"
vhdl proc_common_v3_00_a "F:\Xilinx\14.7\ISE_DS\EDK\hw\XilinxProcessorIPLib\pcores\proc_common_v3_00_a\hdl\vhdl\counter_bit.vhd"
vhdl proc_common_v3_00_a "F:\Xilinx\14.7\ISE_DS\EDK\hw\XilinxProcessorIPLib\pcores\proc_common_v3_00_a\hdl\vhdl\counter.vhd"
vhdl proc_common_v3_00_a "F:\Xilinx\14.7\ISE_DS\EDK\hw\XilinxProcessorIPLib\pcores\proc_common_v3_00_a\hdl\vhdl\direct_path_cntr.vhd"
vhdl proc_common_v3_00_a "F:\Xilinx\14.7\ISE_DS\EDK\hw\XilinxProcessorIPLib\pcores\proc_common_v3_00_a\hdl\vhdl\direct_path_cntr_ai.vhd"
vhdl proc_common_v3_00_a "F:\Xilinx\14.7\ISE_DS\EDK\hw\XilinxProcessorIPLib\pcores\proc_common_v3_00_a\hdl\vhdl\down_counter.vhd"
vhdl proc_common_v3_00_a "F:\Xilinx\14.7\ISE_DS\EDK\hw\XilinxProcessorIPLib\pcores\proc_common_v3_00_a\hdl\vhdl\eval_timer.vhd"
vhdl proc_common_v3_00_a "F:\Xilinx\14.7\ISE_DS\EDK\hw\XilinxProcessorIPLib\pcores\proc_common_v3_00_a\hdl\vhdl\inferred_lut4.vhd"
vhdl proc_common_v3_00_a "F:\Xilinx\14.7\ISE_DS\EDK\hw\XilinxProcessorIPLib\pcores\proc_common_v3_00_a\hdl\vhdl\ipif_steer.vhd"
vhdl proc_common_v3_00_a "F:\Xilinx\14.7\ISE_DS\EDK\hw\XilinxProcessorIPLib\pcores\proc_common_v3_00_a\hdl\vhdl\ipif_steer128.vhd"
vhdl proc_common_v3_00_a "F:\Xilinx\14.7\ISE_DS\EDK\hw\XilinxProcessorIPLib\pcores\proc_common_v3_00_a\hdl\vhdl\ipif_mirror128.vhd"
vhdl proc_common_v3_00_a "F:\Xilinx\14.7\ISE_DS\EDK\hw\XilinxProcessorIPLib\pcores\proc_common_v3_00_a\hdl\vhdl\ld_arith_reg.vhd"
vhdl proc_common_v3_00_a "F:\Xilinx\14.7\ISE_DS\EDK\hw\XilinxProcessorIPLib\pcores\proc_common_v3_00_a\hdl\vhdl\ld_arith_reg2.vhd"
vhdl proc_common_v3_00_a "F:\Xilinx\14.7\ISE_DS\EDK\hw\XilinxProcessorIPLib\pcores\proc_common_v3_00_a\hdl\vhdl\mux_onehot.vhd"
vhdl proc_common_v3_00_a "F:\Xilinx\14.7\ISE_DS\EDK\hw\XilinxProcessorIPLib\pcores\proc_common_v3_00_a\hdl\vhdl\mux_onehot_f.vhd"
vhdl proc_common_v3_00_a "F:\Xilinx\14.7\ISE_DS\EDK\hw\XilinxProcessorIPLib\pcores\proc_common_v3_00_a\hdl\vhdl\or_muxcy.vhd"
vhdl proc_common_v3_00_a "F:\Xilinx\14.7\ISE_DS\EDK\hw\XilinxProcessorIPLib\pcores\proc_common_v3_00_a\hdl\vhdl\or_gate.vhd"
vhdl proc_common_v3_00_a "F:\Xilinx\14.7\ISE_DS\EDK\hw\XilinxProcessorIPLib\pcores\proc_common_v3_00_a\hdl\vhdl\or_gate128.vhd"
vhdl proc_common_v3_00_a "F:\Xilinx\14.7\ISE_DS\EDK\hw\XilinxProcessorIPLib\pcores\proc_common_v3_00_a\hdl\vhdl\pf_adder_bit.vhd"
vhdl proc_common_v3_00_a "F:\Xilinx\14.7\ISE_DS\EDK\hw\XilinxProcessorIPLib\pcores\proc_common_v3_00_a\hdl\vhdl\pf_adder.vhd"
vhdl proc_common_v3_00_a "F:\Xilinx\14.7\ISE_DS\EDK\hw\XilinxProcessorIPLib\pcores\proc_common_v3_00_a\hdl\vhdl\pf_counter_bit.vhd"
vhdl proc_common_v3_00_a "F:\Xilinx\14.7\ISE_DS\EDK\hw\XilinxProcessorIPLib\pcores\proc_common_v3_00_a\hdl\vhdl\pf_counter.vhd"
vhdl proc_common_v3_00_a "F:\Xilinx\14.7\ISE_DS\EDK\hw\XilinxProcessorIPLib\pcores\proc_common_v3_00_a\hdl\vhdl\pf_counter_top.vhd"
vhdl proc_common_v3_00_a "F:\Xilinx\14.7\ISE_DS\EDK\hw\XilinxProcessorIPLib\pcores\proc_common_v3_00_a\hdl\vhdl\pf_occ_counter.vhd"
vhdl proc_common_v3_00_a "F:\Xilinx\14.7\ISE_DS\EDK\hw\XilinxProcessorIPLib\pcores\proc_common_v3_00_a\hdl\vhdl\pf_occ_counter_top.vhd"
vhdl proc_common_v3_00_a "F:\Xilinx\14.7\ISE_DS\EDK\hw\XilinxProcessorIPLib\pcores\proc_common_v3_00_a\hdl\vhdl\pf_dpram_select.vhd"
vhdl proc_common_v3_00_a "F:\Xilinx\14.7\ISE_DS\EDK\hw\XilinxProcessorIPLib\pcores\proc_common_v3_00_a\hdl\vhdl\pselect.vhd"
vhdl proc_common_v3_00_a "F:\Xilinx\14.7\ISE_DS\EDK\hw\XilinxProcessorIPLib\pcores\proc_common_v3_00_a\hdl\vhdl\pselect_mask.vhd"
vhdl proc_common_v3_00_a "F:\Xilinx\14.7\ISE_DS\EDK\hw\XilinxProcessorIPLib\pcores\proc_common_v3_00_a\hdl\vhdl\srl16_fifo.vhd"
vhdl proc_common_v3_00_a "F:\Xilinx\14.7\ISE_DS\EDK\hw\XilinxProcessorIPLib\pcores\proc_common_v3_00_a\hdl\vhdl\srl_fifo.vhd"
vhdl proc_common_v3_00_a "F:\Xilinx\14.7\ISE_DS\EDK\hw\XilinxProcessorIPLib\pcores\proc_common_v3_00_a\hdl\vhdl\srl_fifo2.vhd"
vhdl proc_common_v3_00_a "F:\Xilinx\14.7\ISE_DS\EDK\hw\XilinxProcessorIPLib\pcores\proc_common_v3_00_a\hdl\vhdl\srl_fifo3.vhd"
vhdl proc_common_v3_00_a "F:\Xilinx\14.7\ISE_DS\EDK\hw\XilinxProcessorIPLib\pcores\proc_common_v3_00_a\hdl\vhdl\srl_fifo_rbu.vhd"
vhdl proc_common_v3_00_a "F:\Xilinx\14.7\ISE_DS\EDK\hw\XilinxProcessorIPLib\pcores\proc_common_v3_00_a\hdl\vhdl\valid_be.vhd"
vhdl proc_common_v3_00_a "F:\Xilinx\14.7\ISE_DS\EDK\hw\XilinxProcessorIPLib\pcores\proc_common_v3_00_a\hdl\vhdl\or_with_enable_f.vhd"
vhdl proc_common_v3_00_a "F:\Xilinx\14.7\ISE_DS\EDK\hw\XilinxProcessorIPLib\pcores\proc_common_v3_00_a\hdl\vhdl\muxf_struct_f.vhd"
vhdl proc_common_v3_00_a "F:\Xilinx\14.7\ISE_DS\EDK\hw\XilinxProcessorIPLib\pcores\proc_common_v3_00_a\hdl\vhdl\cntr_incr_decr_addn_f.vhd"
vhdl proc_common_v3_00_a "F:\Xilinx\14.7\ISE_DS\EDK\hw\XilinxProcessorIPLib\pcores\proc_common_v3_00_a\hdl\vhdl\dynshreg_f.vhd"
vhdl proc_common_v3_00_a "F:\Xilinx\14.7\ISE_DS\EDK\hw\XilinxProcessorIPLib\pcores\proc_common_v3_00_a\hdl\vhdl\dynshreg_i_f.vhd"
vhdl proc_common_v3_00_a "F:\Xilinx\14.7\ISE_DS\EDK\hw\XilinxProcessorIPLib\pcores\proc_common_v3_00_a\hdl\vhdl\mux_onehot_f.vhd"
vhdl proc_common_v3_00_a "F:\Xilinx\14.7\ISE_DS\EDK\hw\XilinxProcessorIPLib\pcores\proc_common_v3_00_a\hdl\vhdl\srl_fifo_rbu_f.vhd"
vhdl proc_common_v3_00_a "F:\Xilinx\14.7\ISE_DS\EDK\hw\XilinxProcessorIPLib\pcores\proc_common_v3_00_a\hdl\vhdl\srl_fifo_f.vhd"
vhdl proc_common_v3_00_a "F:\Xilinx\14.7\ISE_DS\EDK\hw\XilinxProcessorIPLib\pcores\proc_common_v3_00_a\hdl\vhdl\compare_vectors_f.vhd"
vhdl proc_common_v3_00_a "F:\Xilinx\14.7\ISE_DS\EDK\hw\XilinxProcessorIPLib\pcores\proc_common_v3_00_a\hdl\vhdl\pselect_f.vhd"
vhdl proc_common_v3_00_a "F:\Xilinx\14.7\ISE_DS\EDK\hw\XilinxProcessorIPLib\pcores\proc_common_v3_00_a\hdl\vhdl\counter_f.vhd"
vhdl proc_common_v3_00_a "F:\Xilinx\14.7\ISE_DS\EDK\hw\XilinxProcessorIPLib\pcores\proc_common_v3_00_a\hdl\vhdl\or_muxcy_f.vhd"
vhdl proc_common_v3_00_a "F:\Xilinx\14.7\ISE_DS\EDK\hw\XilinxProcessorIPLib\pcores\proc_common_v3_00_a\hdl\vhdl\soft_reset.vhd"
vhdl plb_v46_v1_05_a "F:\Xilinx\14.7\ISE_DS\EDK\hw\XilinxProcessorIPLib\pcores\plb_v46_v1_05_a\hdl\vhdl\or_bits.vhd"
vhdl plb_v46_v1_05_a "F:\Xilinx\14.7\ISE_DS\EDK\hw\XilinxProcessorIPLib\pcores\plb_v46_v1_05_a\hdl\vhdl\or_gate.vhd"
vhdl plb_v46_v1_05_a "F:\Xilinx\14.7\ISE_DS\EDK\hw\XilinxProcessorIPLib\pcores\plb_v46_v1_05_a\hdl\vhdl\arb_control_sm.vhd"
vhdl plb_v46_v1_05_a "F:\Xilinx\14.7\ISE_DS\EDK\hw\XilinxProcessorIPLib\pcores\plb_v46_v1_05_a\hdl\vhdl\dcr_regs.vhd"
vhdl plb_v46_v1_05_a "F:\Xilinx\14.7\ISE_DS\EDK\hw\XilinxProcessorIPLib\pcores\plb_v46_v1_05_a\hdl\vhdl\gen_qual_req.vhd"
vhdl plb_v46_v1_05_a "F:\Xilinx\14.7\ISE_DS\EDK\hw\XilinxProcessorIPLib\pcores\plb_v46_v1_05_a\hdl\vhdl\muxed_signals.vhd"
vhdl plb_v46_v1_05_a "F:\Xilinx\14.7\ISE_DS\EDK\hw\XilinxProcessorIPLib\pcores\plb_v46_v1_05_a\hdl\vhdl\pend_request.vhd"
vhdl plb_v46_v1_05_a "F:\Xilinx\14.7\ISE_DS\EDK\hw\XilinxProcessorIPLib\pcores\plb_v46_v1_05_a\hdl\vhdl\qual_priority.vhd"
vhdl plb_v46_v1_05_a "F:\Xilinx\14.7\ISE_DS\EDK\hw\XilinxProcessorIPLib\pcores\plb_v46_v1_05_a\hdl\vhdl\pending_priority.vhd"
vhdl plb_v46_v1_05_a "F:\Xilinx\14.7\ISE_DS\EDK\hw\XilinxProcessorIPLib\pcores\plb_v46_v1_05_a\hdl\vhdl\qual_request.vhd"
vhdl plb_v46_v1_05_a "F:\Xilinx\14.7\ISE_DS\EDK\hw\XilinxProcessorIPLib\pcores\plb_v46_v1_05_a\hdl\vhdl\priority_encoder.vhd"
vhdl plb_v46_v1_05_a "F:\Xilinx\14.7\ISE_DS\EDK\hw\XilinxProcessorIPLib\pcores\plb_v46_v1_05_a\hdl\vhdl\rr_select.vhd"
vhdl plb_v46_v1_05_a "F:\Xilinx\14.7\ISE_DS\EDK\hw\XilinxProcessorIPLib\pcores\plb_v46_v1_05_a\hdl\vhdl\plb_arb_encoder.vhd"
vhdl plb_v46_v1_05_a "F:\Xilinx\14.7\ISE_DS\EDK\hw\XilinxProcessorIPLib\pcores\plb_v46_v1_05_a\hdl\vhdl\watchdog_timer.vhd"
vhdl plb_v46_v1_05_a "F:\Xilinx\14.7\ISE_DS\EDK\hw\XilinxProcessorIPLib\pcores\plb_v46_v1_05_a\hdl\vhdl\plb_wr_datapath.vhd"
vhdl plb_v46_v1_05_a "F:\Xilinx\14.7\ISE_DS\EDK\hw\XilinxProcessorIPLib\pcores\plb_v46_v1_05_a\hdl\vhdl\plb_rd_datapath.vhd"
vhdl plb_v46_v1_05_a "F:\Xilinx\14.7\ISE_DS\EDK\hw\XilinxProcessorIPLib\pcores\plb_v46_v1_05_a\hdl\vhdl\plb_addrpath.vhd"
vhdl plb_v46_v1_05_a "F:\Xilinx\14.7\ISE_DS\EDK\hw\XilinxProcessorIPLib\pcores\plb_v46_v1_05_a\hdl\vhdl\plb_slave_ors.vhd"
vhdl plb_v46_v1_05_a "F:\Xilinx\14.7\ISE_DS\EDK\hw\XilinxProcessorIPLib\pcores\plb_v46_v1_05_a\hdl\vhdl\plb_interrupt.vhd"
vhdl plb_v46_v1_05_a "F:\Xilinx\14.7\ISE_DS\EDK\hw\XilinxProcessorIPLib\pcores\plb_v46_v1_05_a\hdl\vhdl\plb_arbiter_logic.vhd"
vhdl plb_v46_v1_05_a "F:\Xilinx\14.7\ISE_DS\EDK\hw\XilinxProcessorIPLib\pcores\plb_v46_v1_05_a\hdl\vhdl\plb_p2p.vhd"
vhdl plb_v46_v1_05_a "F:\Xilinx\14.7\ISE_DS\EDK\hw\XilinxProcessorIPLib\pcores\plb_v46_v1_05_a\hdl\vhdl\plb_v46.vhd"
vhdl work "F:\Microblaze_SDRAM\hdl\it_works_mb_plb_wrapper.vhd"
